{
  "view": {
    "fov": 45.0,
    "targetMethod": "normal-dir"
  },
  "models": [
    {
      "file": "myModel1.obj",
      "transformations": [
        "translate 1 2 3",
        "scale 1"
    ]    },
    {
      "file": "myModel2.obj",
      "transformations": []
    }
  ],
  "screen": {
    "file": "myScreen.obj"
  }
}